{
    "KPlugin": {
        "BugReportUrl": "https://bugs.kde.org/enter_bug.cgi?product=systemsettings&component=kcm_autostart",
        "Description": "Automatically Started Applications",
        "Description[ar]": "التطبيقات التي تبدأ آليا",
        "Description[az]": "Avtomatik işə düşən tətbiqlər",
        "Description[be]": "Аўтаматычна запушчаныя праграмы",
        "Description[bg]": "Автоматично стартирани приложения",
        "Description[ca@valencia]": "Aplicacions iniciades automàticament",
        "Description[ca]": "Aplicacions iniciades automàticament",
        "Description[cs]": "Automaticky spouštěné aplikace",
        "Description[da]": "Programmer der startes automatisk",
        "Description[de]": "Automatisch zu startende Anwendungen",
        "Description[en_GB]": "Automatically Started Applications",
        "Description[eo]": "Aŭtomate Lanĉitaj Aplikaĵoj",
        "Description[es]": "Aplicaciones que se inician automáticamente",
        "Description[et]": "Automaatselt käivituvad rakendused",
        "Description[eu]": "Automatikoki abiatutako aplikazioak",
        "Description[fi]": "Automaattisesti käynnistettävät ohjelmat",
        "Description[fr]": "Applications automatiquement démarrées",
        "Description[hu]": "Automatikusan indított alkalmazások",
        "Description[ia]": "Applicationes initiate automaticamente",
        "Description[id]": "Aplikasi Dijalankan Secara Otomatis",
        "Description[is]": "Sjálfkrafa keyrð forrit",
        "Description[it]": "Applicazioni avviate automaticamente",
        "Description[ja]": "自動的に開始されたアプリケーション",
        "Description[ka]": "ავტომატურად გაშვებადი აპლიკაციები",
        "Description[ko]": "자동으로 시작되는 프로그램",
        "Description[lt]": "Automatiškai paleidžiamos programos",
        "Description[nl]": "Automatisch gestarte toepassingen",
        "Description[nn]": "Automatisk starta program",
        "Description[pa]": "ਆਪਣੇ-ਆਪ ਸ਼ੁਰੂ ਹੋਈਆਂ ਐਪਲੀਕੇਸ਼ਨਾਂ",
        "Description[pl]": "Samoczynnie uruchamiane programy",
        "Description[pt]": "Aplicações Iniciadas Automaticamente",
        "Description[pt_BR]": "Aplicativos iniciados automaticamente",
        "Description[ro]": "Aplicații pornite automat",
        "Description[ru]": "Автоматический запуск приложений",
        "Description[sk]": "Automaticky spúšťané aplikácie",
        "Description[sl]": "Samodejno zagnani programi",
        "Description[sv]": "Program som startas automatiskt",
        "Description[ta]": "தானாக துவக்கப்படும் செயலிகள்",
        "Description[tr]": "Otomatik Başlatılan Uygulamalar",
        "Description[uk]": "Програми, що запускаються автоматично",
        "Description[vi]": "Các ứng dụng được khởi động tự động",
        "Description[x-test]": "xxAutomatically Started Applicationsxx",
        "Description[zh_CN]": "自动启动的应用程序",
        "Description[zh_TW]": "自動啟動的應用程式",
        "FormFactors": [
            "tablet",
            "handset",
            "desktop"
        ],
        "Icon": "system-run",
        "Name": "Autostart",
        "Name[ar]": "بدء تلقائي",
        "Name[az]": "Avtomatik başlama",
        "Name[be]": "Аўтазапуск",
        "Name[bg]": "Автоматично стартиране",
        "Name[ca@valencia]": "Inici automàtic",
        "Name[ca]": "Inici automàtic",
        "Name[cs]": "Automatické spuštění",
        "Name[da]": "Autostart",
        "Name[de]": "Autostart",
        "Name[en_GB]": "Autostart",
        "Name[es]": "Inicio automático",
        "Name[et]": "Autostart",
        "Name[eu]": "Abio automatikoa",
        "Name[fi]": "Automaattikäynnistys",
        "Name[fr]": "Démarrage automatique",
        "Name[hi]": "स्वतः चालू",
        "Name[hsb]": "Awtostart",
        "Name[hu]": "Automatikus indítás",
        "Name[ia]": "Auto starta",
        "Name[id]": "Auto Mulai",
        "Name[is]": "Sjálfvirk ræsing",
        "Name[it]": "Avvio automatico",
        "Name[ja]": "自動起動",
        "Name[ka]": "ავტოსტარტი",
        "Name[ko]": "자동 시작",
        "Name[lt]": "Automatinis paleidimas",
        "Name[ml]": "സ്വയം തുടങ്ങുന്നവ",
        "Name[nl]": "Autostart",
        "Name[nn]": "Autostart",
        "Name[pa]": "ਆਟੋ-ਸਟਾਰਟ",
        "Name[pl]": "Samouruchamiane",
        "Name[pt]": "Arranque",
        "Name[pt_BR]": "Iniciar automaticamente",
        "Name[ro]": "Pornire automată",
        "Name[ru]": "Автозапуск",
        "Name[sk]": "Automatické spustenie",
        "Name[sl]": "Samodejni zagon",
        "Name[sv]": "Automatisk start",
        "Name[ta]": "சுயதுவக்கம்",
        "Name[tr]": "Otomatik Başlatma",
        "Name[uk]": "Автозапуск",
        "Name[vi]": "Khởi động tự động",
        "Name[x-test]": "xxAutostartxx",
        "Name[zh_CN]": "自动启动",
        "Name[zh_TW]": "自動啟動"
    },
    "X-DocPath": "kcontrol/autostart/index.html",
    "X-KDE-Keywords": "Autostart Manager,system startup,plasma start,cron,auto,start,start up,boot,load,session,startup,launch,login",
    "X-KDE-Keywords[az]": "Avtobaşlama meneceri,sistemin açılması,plasma'nın açılması,cron,avtomatik,başlama,başladılma,önyükləmə,yüklənmə,sessiya,işə düşmə,giriş",
    "X-KDE-Keywords[ca]": "Gestor de l'inici automàtic,inici del sistema,inici del Plasma,cron,automàtic,inici,engegar,engegada,càrrega,sessió,llançament,inici de sessió",
    "X-KDE-Keywords[es]": "Gestor de inicio automático,inicio del sistema,inicio de plasma,cron,automático,inicio,arranque,cargar,sesión,lanzamiento,lanzar,inicio de sesión",
    "X-KDE-Keywords[fr]": "Gestionnaire de démarrage automatique, démarrage du système, démarrage de Plasma, cron, auto, démarrage, boot, chargement, session, démarrage, lancement, connexion",
    "X-KDE-Keywords[hu]": "Automatikus indítás kezelő,rendszerindítás,plasma indítása,cron,auto,start,indítás,boot,betöltés,munkamenet,indulás,indítás,bejelentkezés",
    "X-KDE-Keywords[it]": "Gestore avvio automatico,avvio del sistema,avvio di plasma,cron,automatico,avvio,sessione,caricamento,accesso",
    "X-KDE-Keywords[ko]": "자동 시작,자동시작,시작프로그램,시스템 시작,plasma 시작,자동,시작,부트,부팅,로드,로딩,세션,로그인",
    "X-KDE-Keywords[nl]": "Autostartbeheerder,systeem,opstarten systeem,opstarten plasma,automatisch,starten,opstarten,systeemopstart,boot,laden,sessie,aanmelden",
    "X-KDE-Keywords[pt_BR]": "Gerenciado de inicialização,inicialização do sistema,início do plasma,cron, automático,início,inicialização,boot,carregar,sessão,inicialização,lançar,lançamento",
    "X-KDE-Keywords[sl]": "Upravljalnik samodejnega zagona,zagon sistema,zagon Plasme,zagon cron;samodejno;zagon;hladni zagon;inicialno nalaganje;cron,nalaganje,seja;prijava",
    "X-KDE-Keywords[sv]": "Hantering av autostart,systemstart,plasma start,cron,auto,start,ladda,session,inloggning",
    "X-KDE-Keywords[uk]": "AAutostart Manager,system startup,plasma start,cron,auto,start,start up,boot,load,session,startup,launch,login,керування автозапуском,автозапуск,запуск,запуск системи,запуск плазми,завантаження,сеанс,запуск,вхід,логін,лоґін",
    "X-KDE-Keywords[vi]": "trình quản lí khởi động tự động,khởi động hệ thống,khởi động plasma,cron,khởi động,tự động,tải,phiên,đăng nhập",
    "X-KDE-Keywords[x-test]": "xxAutostart Managerxx,xxsystem startupxx,xxplasma startxx,xxcronxx,xxautoxx,xxstartxx,xxstart upxx,xxbootxx,xxloadxx,xxsessionxx,xxstartupxx,xxlaunchxx,xxloginxx",
    "X-KDE-System-Settings-Parent-Category": "session",
    "X-KDE-Weight": 30
}
