{
    "KPlugin": {
        "Authors": [
            {
                "Email": "chani@kde.org",
                "Name": "Chani",
                "Name[ar]": "تشاني",
                "Name[az]": "Chani",
                "Name[be]": "Chani",
                "Name[bg]": "Chani",
                "Name[ca@valencia]": "Chani",
                "Name[ca]": "Chani",
                "Name[cs]": "Chani",
                "Name[da]": "Chani",
                "Name[de]": "Chani",
                "Name[en_GB]": "Chani",
                "Name[es]": "Chani",
                "Name[et]": "Chani",
                "Name[eu]": "Chani",
                "Name[fi]": "Chani",
                "Name[fr]": "Chani",
                "Name[hu]": "Chani",
                "Name[ia]": "Chani",
                "Name[id]": "Chani",
                "Name[is]": "Chani",
                "Name[it]": "Chani",
                "Name[ja]": "Chani",
                "Name[ka]": "Chani",
                "Name[ko]": "Chani",
                "Name[lt]": "Chani",
                "Name[nl]": "Chani",
                "Name[nn]": "Chani",
                "Name[pl]": "Chani",
                "Name[pt]": "Chani",
                "Name[pt_BR]": "Chani",
                "Name[ro]": "Chani",
                "Name[ru]": "Chani",
                "Name[sk]": "Chani",
                "Name[sl]": "Chani",
                "Name[sv]": "Chani",
                "Name[ta]": "இச்சானி",
                "Name[tr]": "Chani",
                "Name[uk]": "Chani",
                "Name[vi]": "Chani",
                "Name[x-test]": "xxChanixx",
                "Name[zh_CN]": "Chani"
            }
        ],
        "Description": "Switch to another virtual desktop",
        "Description[ar]": "بدّل إلى سطح مكتب وهمي آخر",
        "Description[az]": "Başqa İş masasına keçidi təmin edir",
        "Description[be]": "Пераключэнне на іншы віртуальны працоўны стол",
        "Description[bg]": "Превключване към друг виртуален работен плот",
        "Description[ca@valencia]": "Canvia a un altre escriptori virtual",
        "Description[ca]": "Canvia a un altre escriptori virtual",
        "Description[cs]": "Přepnout na jinou virtuální plochu",
        "Description[da]": "Skift til et andet virtuelt skrivebord",
        "Description[de]": "Zu einer anderen virtuellen Arbeitsfläche wechseln",
        "Description[en_GB]": "Switch to another virtual desktop",
        "Description[eo]": "Ŝalti al alia virtuala labortablo",
        "Description[es]": "Cambiar a otro escritorio virtual",
        "Description[et]": "Lülitumine teisele virtuaalsele töölauale",
        "Description[eu]": "Aldatu alegiazko beste mahaigain batera",
        "Description[fi]": "Vaihda toiselle virtuaalityöpöydälle",
        "Description[fr]": "Basculer vers un autre bureau virtuel",
        "Description[hu]": "Váltás másik virtuális asztalra",
        "Description[ia]": "Commuta  a altere scriptorio virtual",
        "Description[id]": "Alihkan ke virtual desktop lainnya",
        "Description[is]": "Skiptir á milli sýndarskjáborða",
        "Description[it]": "Passa ad un altro desktop virtuale",
        "Description[ja]": "他の仮想デスクトップに切り替えます",
        "Description[ka]": "სხვა ვირტუალურ სამუშაო მაგიდაზე გადართვა",
        "Description[ko]": "다른 가상 바탕 화면으로 전환합니다",
        "Description[lt]": "Perjungti į kitą virtualų darbalaukį",
        "Description[nl]": "Schakel naar een andere virtueel bureaublad",
        "Description[nn]": "Byt til eit anna virtuelt skrivebord",
        "Description[pa]": "ਹੋਰ ਵੁਰਚੁਅਲ ਡੈਸਕਟਾਪਾਂ ਉੱਤੇ ਜਾਓ",
        "Description[pl]": "Przełącza między pulpitami",
        "Description[pt]": "Mudar para outro ecrã virtual",
        "Description[pt_BR]": "Alterna para outra área de trabalho",
        "Description[ro]": "Comută la alt birou virtual",
        "Description[ru]": "Переключение на другой рабочий стол",
        "Description[sk]": "Prepne na inú virtuálnu plochu",
        "Description[sl]": "Preklopi na drugo navidezno namizje",
        "Description[sv]": "Byt till ett annat virtuellt skrivbord",
        "Description[ta]": "வேறு பணிமேடைக்குத் தாவு",
        "Description[tr]": "Başka bir sanal masaüstüne geç",
        "Description[uk]": "Перемкнутися на іншу віртуальну стільницю",
        "Description[vi]": "Chuyển sang một bàn làm việc ảo khác",
        "Description[x-test]": "xxSwitch to another virtual desktopxx",
        "Description[zh_CN]": "切换到另一个虚拟桌面",
        "Description[zh_TW]": "切換到其他虛擬桌面",
        "EnabledByDefault": true,
        "Icon": "user-desktop",
        "Id": "org.kde.switchdesktop",
        "License": "GPL",
        "Name": "Switch Desktop",
        "Name[ar]": "بدّل سطح المكتب",
        "Name[az]": "İş masasına keçid",
        "Name[be]": "Пераключэнне працоўнага стала",
        "Name[bg]": "Превключване на работен плот",
        "Name[bn]": "অন্য ডেস্কটপ",
        "Name[bs]": "Prebacivanje površi",
        "Name[ca@valencia]": "Canvi d'escriptori",
        "Name[ca]": "Canvi d'escriptori",
        "Name[cs]": "Přepnout plochu",
        "Name[da]": "Skift skrivebord",
        "Name[de]": "Arbeitsfläche wechseln",
        "Name[el]": "Εναλλαγή Επιφάνειας εργασίας",
        "Name[en_GB]": "Switch Desktop",
        "Name[eo]": "Ŝalti Labortablon",
        "Name[es]": "Cambiar escritorio",
        "Name[et]": "Töölaua vahetamine",
        "Name[eu]": "Aldatu mahaigainez",
        "Name[fi]": "Vaihda työpöytää",
        "Name[fr]": "Changer de bureau",
        "Name[fy]": "Buroblêd wikselje",
        "Name[ga]": "Athraigh an Deasc",
        "Name[gl]": "Cambiar de escritorio",
        "Name[gu]": "ડેસ્કટોપ બદલો",
        "Name[he]": "מחליף שולחנות עבודה",
        "Name[hi]": "डेस्कटॉप बदलें",
        "Name[hr]": "Prebaci radnu površinu",
        "Name[hsb]": "Na hinaši dźěłowy powjerch hić",
        "Name[hu]": "Asztalváltás",
        "Name[ia]": "Commuta  scriptorio",
        "Name[id]": "Alihkan Desktop",
        "Name[is]": "Skipta um skjáborð",
        "Name[it]": "Cambia desktop",
        "Name[ja]": "デスクトップを切り替え",
        "Name[ka]": "სამუშაო მაგიდის გადართვა",
        "Name[kk]": "Жұмыс үстелді ауыстыру",
        "Name[km]": "ប្ដូរ​ផ្ទៃតុ",
        "Name[kn]": "ಗಣಕತೆರೆಯನ್ನು ಬದಲಾಯಿಸು",
        "Name[ko]": "바탕 화면 전환",
        "Name[lt]": "Perjungti darbalaukį",
        "Name[lv]": "Pārslēgt darbvirsmu",
        "Name[mk]": "Смени раб. површина",
        "Name[ml]": "പണിയിടം മാറുക",
        "Name[mr]": "वेगळ्या डेस्कटॉप वर जा",
        "Name[nb]": "Bytt skrivebord",
        "Name[nds]": "Schriefdisch wesseln",
        "Name[nl]": "Bureaublad omschakelen",
        "Name[nn]": "Byt skrivebord",
        "Name[pa]": "ਡੈਸਕਟਾਪ ਬਦਲੋ",
        "Name[pl]": "Przełącznik pulpitów",
        "Name[pt]": "Mudar de Ecrã",
        "Name[pt_BR]": "Alternar área de trabalho",
        "Name[ro]": "Comutare birou",
        "Name[ru]": "Переключение рабочих столов",
        "Name[si]": "වැඩතලය මාරුකරන්න",
        "Name[sk]": "Prepnúť plochu",
        "Name[sl]": "Preklopi med namizji",
        "Name[sr@ijekavian]": "пребацивање површи",
        "Name[sr@ijekavianlatin]": "prebacivanje površi",
        "Name[sr@latin]": "prebacivanje površi",
        "Name[sr]": "пребацивање површи",
        "Name[sv]": "Byt skrivbord",
        "Name[ta]": "பணிமேடையை மாற்று",
        "Name[tg]": "Гузариши мизи корӣ",
        "Name[th]": "สลับพื้นที่ทำงาน",
        "Name[tr]": "Masaüstünü Değiştir",
        "Name[ug]": "ئۈستەلئۈستى ئالماشتۇر",
        "Name[uk]": "Перемкнути стільницю",
        "Name[vi]": "Chuyển bàn làm việc",
        "Name[wa]": "Potchî a èn ôte sicribanne",
        "Name[x-test]": "xxSwitch Desktopxx",
        "Name[zh_CN]": "切换桌面",
        "Name[zh_TW]": "切換桌面",
        "Version": "pre0.1",
        "Website": "https://www.kde.org/plasma-desktop"
    }
}
